{
  "description": "Adds various miscellaneous blocks to the game.",
  "dependencies": [],
  "dependencies_optional": [
    "intllib",
    "basic_materials"
  ],
  "version": "v1.2.0",
  "source": "https://github.com/minetest-mods/moreblocks",
  "submods": []
}